{
  "users": [
    {
      "firstName": "Automation",
      "lastName": "user",
      "email": "Automation.user@nagwa.com",
      "userName": "Automation.user",
      "birthDate": "1993-12-15",
      "plainPassword": "123456"
    }
  ],
  "createdByCode": null,
  "countryIso": "eg",
  "languageIso": "en",
  "portalID": 919101829346
}